{
  "AllowedHosts": "*",

  "Logging": {
    "LogLevel": {
      "Default": "Warning"
    }
  },

  "UseProxyHeaders": false,

  "ConnectionStrings": {
    "Default": "Server=127.0.0.1;Database=pwa;Pwd=pwa2023;Uid=pwa"
  }

}